…
Parsed with column specification:
cols(
  taxon = col_character(),
  reference_no = col_double(),
  subfamily = col_character(),
  Tribe = col_character(),
  Genus = col_character(),
  Fossil = col_character(),
  min_ma = col_double(),
  max_ma = col_double(),
  Notes = col_character()
)
 print(project_dat)
# A tibble: 789 x 9
   taxon               reference_no subfamily       Tribe      Genus       Fossil min_ma max_ma Notes
   <chr                      <dbl <chr           <chr      <chr       <chr   <dbl  <dbl <chr
 1 Agroecomyrmex_duis…        44414 Agroecomyrmeci… None       Agroecomyr… Yes     33.9    38   Note 
 2 Eulithomyrmex_rugo…         4971 Agroecomyrmeci… None       Eulithomyr… Yes     33.9    37.2 Note 
 3 Eulithomyrmex_stri…         4971 Agroecomyrmeci… None       Eulithomyr… Yes     33.9    37.2 Note 
 4 Ambyloponinae              59088 Ambyloponinae   None       None        Yes     20.4    23.0 Note 
 5 Amblyoponini               53165 Ambyloponinae   Amblyopon… Amblyoponi… Yes     20.4    23.0 Note 
 6 Casaleia_eocenica          43781 Ambyloponinae   None       Casaleia    Yes     40.4    48.6 Note 
 7 Casaleia_inversa           41286 Ambyloponinae   None       Casaleia    Yes      5.33   16.0 Note 
 8 Casaleia_longivent…        37344 Ambyloponinae   None       Casaleia    Yes     11.6    12.7 Note 
 9 Casaleia_orientalis        56094 Ambyloponinae   None       Casaleia    Yes     33.9    38   Note 
10 Myopopone_sinensis         16579 Ambyloponinae   None       Myopopone   Yes     11.6    16.0 Note 
# … with 779 more rows
```

2. (5pts) Check the datatypes of each column. There is a column called reference number. This is a static identifier - it should not be changed, and is an indexer used to identify this specimen uniquely. Do we want to treat it as an integer (this is an opinion question - answers may vary).

```
I, too, use a unique identifier (ID number) for all of my specimens. I wouldn't treat this as an integer because there are going to be no analyses using the numbers. They are simply the unique name of the specimen. 
```

3. (5 pts) Change the datatype of the reference number column to character. Hint: use mutate. Look at the `as.character` function.

```{r}
 project_dat %% 
 mutate(as.character(reference_no))
``` 
 
# A tibble: 789 x 10
   taxon    reference_no subfamily  Tribe  Genus Fossil min_ma max_ma Notes `as.character(re…
   <chr           <dbl <chr      <chr  <chr <chr   <dbl  <dbl <chr <chr            
 1 Agroeco…        44414 Agroecomy… None   Agro… Yes     33.9    38   Note  44414            
 2 Eulitho…         4971 Agroecomy… None   Euli… Yes     33.9    37.2 Note  4971             
 3 Eulitho…         4971 Agroecomy… None   Euli… Yes     33.9    37.2 Note  4971             
 4 Ambylop…        59088 Ambylopon… None   None  Yes     20.4    23.0 Note  59088            
 5 Amblyop…        53165 Ambylopon… Ambly… Ambl… Yes     20.4    23.0 Note  53165            
 6 Casalei…        43781 Ambylopon… None   Casa… Yes     40.4    48.6 Note  43781            
 7 Casalei…        41286 Ambylopon… None   Casa… Yes      5.33   16.0 Note  41286            
 8 Casalei…        37344 Ambylopon… None   Casa… Yes     11.6    12.7 Note  37344            
 9 Casalei…        56094 Ambylopon… None   Casa… Yes     33.9    38   Note  56094            
10 Myopopo…        16579 Ambylopon… None   Myop… Yes     11.6    16.0 Note  16579            
# … with 779 more rows
```

4. (5 pts) Look at your data. What are the missing data values? In particular, have a look at the `Tribe` column. In your opinion, are these intelligent missing values for the dataset? Why or why not? If not, how would you like to change them? 

```
These are not intelligent missing values because they are character values that are still meaningful to the computer. I would substitute None for NA because the computer recognizes NA as nothing there (NA = No Answer, right?).

```

5. (5pts) Now do it - replace your missing values with these more logical missing values. Look at the function `na_if`, which replaces nonstandard NA values. Please first look at the help page for `na_if`.

```{r}
 na_if(project_dat, "None")

```
# A tibble: 789 x 9
   taxon               reference_no subfamily       Tribe      Genus       Fossil min_ma max_ma Notes
   <chr                      <dbl <chr           <chr      <chr       <chr   <dbl  <dbl <chr
 1 Agroecomyrmex_duis…        44414 Agroecomyrmeci… NA         Agroecomyr… Yes     33.9    38   Note 
 2 Eulithomyrmex_rugo…         4971 Agroecomyrmeci… NA         Eulithomyr… Yes     33.9    37.2 Note 
 3 Eulithomyrmex_stri…         4971 Agroecomyrmeci… NA         Eulithomyr… Yes     33.9    37.2 Note 
 4 Ambyloponinae              59088 Ambyloponinae   NA         NA          Yes     20.4    23.0 Note 
 5 Amblyoponini               53165 Ambyloponinae   Amblyopon… Amblyoponi… Yes     20.4    23.0 Note 
 6 Casaleia_eocenica          43781 Ambyloponinae   NA         Casaleia    Yes     40.4    48.6 Note 
 7 Casaleia_inversa           41286 Ambyloponinae   NA         Casaleia    Yes      5.33   16.0 Note 
 8 Casaleia_longivent…        37344 Ambyloponinae   NA         Casaleia    Yes     11.6    12.7 Note 
 9 Casaleia_orientalis        56094 Ambyloponinae   NA         Casaleia    Yes     33.9    38   Note 
10 Myopopone_sinensis         16579 Ambyloponinae   NA         Myopopone   Yes     11.6    16.0 Note 
# … with 779 more rows
```
…
```
I would group max_ma together and filter out the numbers that I need. Max_ma is the maximum age a specimen could be, and to be sure I include all possible specimens, I would use this column to filter. I would filter everything based on being either between 75 mya - 100 mya and 30 mya to the present interval. If I can get numbers of each grouping, then I can compare which group contains more specimens by looking at the number of rows.
```

9. (15 pts) Perform the operations you described in (8). 

```{r}
 project_dat %% 
 filter(max_ma,  75) %% 
 filter(max_ma < 100) %% 
 group_by(taxon, max_ma)
project_dat
``` 
# A tibble: 61 x 9
# Groups:   taxon, max_ma [61]
   taxon                    reference_no subfamily   Tribe Genus        Fossil min_ma max_ma Notes   
   <chr                           <dbl <chr       <chr <chr        <chr   <dbl  <dbl <chr   
 1 Burmomyrma_rossi                39313 Aneuretinae None  Burmomyrma   Yes      93.5   99.6 Note    
 2 Cananeuretus_occidental…        36535 Aneuretinae None  Cananeuretus Yes      70.6   83.5 Note    
 3 Archaeopone_kzylzharica         37059 Armaniinae  None  Archaeopone  Yes      89.8   93.9 Note    
 4 Archaeopone_taylori             35238 Armaniinae  None  Archaeopone  Yes      70.6   83.5 Note    
 5 Armania                         39728 Armaniinae  None  Armania      Yes      89.8   93.9 Note    
 6 Armania_capitata                39728 Armaniinae  None  Armania      Yes      89.8   93.9 Note    
 7 Armania_curiosa                 35238 Armaniinae  None  Armania      Yes      70.6   83.5 Note    
 8 Armania_pristina                39728 Armaniinae  None  Armania      Yes      89.8   93.9 Note    
 9 Armania_robusta                 35238 Armaniinae  None  Armania      Yes      70.6   83.5 Stem An…
10 Dolichomyrma_latipes            37059 Armaniinae  None  Dolichomyrma Yes      89.8   93.9 Note    
# … with 51 more rows
 
```{r} 
  project_dat %% 
 filter(max_ma < 30) %% 
 filter(max_ma,  0) %% 
 group_by(taxon, max_ma)
 #AMW: This doesn't work for me - perhaps a missing missdle step? 
``` 

# A tibble: 313 x 9
# Groups:   taxon, max_ma [313]
   taxon                 reference_no subfamily      Tribe      Genus      Fossil min_ma max_ma Notes
   <chr                        <dbl <chr          <chr      <chr      <chr   <dbl  <dbl <chr
 1 Ambyloponinae                59088 Ambyloponinae  None       None       Yes     20.4    23.0 Note 
 2 Amblyoponini                 53165 Ambyloponinae  Amblyopon… Amblyopon… Yes     20.4    23.0 Note 
 3 Casaleia_inversa             41286 Ambyloponinae  None       Casaleia   Yes      5.33   16.0 Note 
 4 Casaleia_longiventris        37344 Ambyloponinae  None       Casaleia   Yes     11.6    12.7 Note 
 5 Myopopone_sinensis           16579 Ambyloponinae  None       Myopopone  Yes     11.6    16.0 Note 
 6 Alloiomma_changweien…        16579 Dolichoderinae None       Alloiomma  Yes     11.6    16.0 Note 
 7 Alloiomma_differenti…        36942 Dolichoderinae None       Alloiomma  Yes     11.6    16.0 Note 
 8 Azteca                       49381 Dolichoderinae NA         Azteca     Yes     16.0    23.0 Note 
 9 Azteca_alpha                  5207 Dolichoderinae NA         Azteca     Yes     13.8    20.4 Note 
10 Azteca_eumeces                5207 Dolichoderinae NA         Azteca     Yes     13.8    20.4 Note 
# … with 303 more rows
…
